{
    "name": "Microntek",
    "buttons": {
        "aBtn": 289,
        "bBtn": 290,
        "xBtn": 288,
        "yBtn": 291,
        "lBtn": 292,
        "rBtn": 293,
        "llBtn": 294,
        "rrBtn": 295,
        "selBtn": 296,
        "staBtn": 297,
        "joyLBtn": 298,
        "joyRBtn": 299,
        "horizontal": "ABS_HAT0X",
        "vertical": "ABS_HAT0Y"
    },
    "joysticks": {
        "right": {
            "horizontal": "ABS_Z",
            "vertical": "ABS_RZ"
        },
        "left": {
            "horizontal": "ABS_X",
            "vertical": "ABS_Y"
        }
    }
}