{   
    "name": "gamepad",
    "buttons": {
        "aBtn": 289,
        "bBtn": 290,
        "xBtn": 288,
        "yBtn": 291,
        "lBtn": 292,
        "rBtn": 293,
        "selBtn": 296,
        "staBtn": 297,
        "horizontal": "ABS_X",
        "vertical": "ABS_Y"
    }
}